EDLD3-midterm
…
clean.data

## # A tibble: 90,576 x 7
##    academic_year district   school         student_group grade_level level     n
##    <chr>         <chr>      <chr>          <chr>         <chr>       <chr> <int>
##  1 2014-2015     Adrian SD~ Adrian Elemen~ Hispanic/Lat~ Grade 3     1         2
##  2 2014-2015     Adrian SD~ Adrian Elemen~ Hispanic/Lat~ Grade 3     2         1
##  3 2014-2015     Adrian SD~ Adrian Elemen~ Hispanic/Lat~ Grade 3     3         2
##  4 2014-2015     Adrian SD~ Adrian Elemen~ Hispanic/Lat~ Grade 3     4         1
##  5 2014-2015     Adrian SD~ Adrian Elemen~ Hispanic/Lat~ Grade 6     1         2
##  6 2014-2015     Adrian SD~ Adrian Elemen~ Hispanic/Lat~ Grade 6     2         3
##  7 2014-2015     Adrian SD~ Adrian Elemen~ Hispanic/Lat~ Grade 6     3         2
##  8 2014-2015     Adrian SD~ Adrian Elemen~ Hispanic/Lat~ Grade 6     4         0
##  9 2014-2015     Adrian SD~ Adrian Elemen~ Hispanic/Lat~ Grade 7     1         2
## 10 2014-2015     Adrian SD~ Adrian Elemen~ Hispanic/Lat~ Grade 7     2         2
## # ... with 90,566 more rows
2.

clean.data_2 <- clean.data %>%  
   group_by(district) %>% 
  mutate(n_schools = length(unique(school))) %>% 
  group_by(academic_year, district, student_group, level, n_schools) %>%
  summarize(n = sum(n)) %>% pivot_wider(names_from = student_group, values_from = n) %>%
  drop_na() %>%
  arrange(district) %>% 
   janitor::clean_names() %>% 
   select(academic_year, district, n_schools,  everything())

clean.data_2

## # A tibble: 1,948 x 6
## # Groups:   academic_year, district, level [1,948]
##    academic_year district     n_schools level hispanic_latino white
##    <chr>         <chr>            <int> <chr>           <int> <int>
##  1 2014-2015     Adrian SD 61         2 1                   6     8
##  2 2014-2015     Adrian SD 61         2 2                   6    17
##  3 2014-2015     Adrian SD 61         2 3                   6    23
##  4 2014-2015     Adrian SD 61         2 4                   1    22
##  5 2015-2016     Adrian SD 61         2 1                   5     4
##  6 2015-2016     Adrian SD 61         2 2                   3    15
##  7 2015-2016     Adrian SD 61         2 3                   5    39
##  8 2015-2016     Adrian SD 61         2 4                   0    36
##  9 2016-2017     Adrian SD 61         2 1                   2     4
## 10 2016-2017     Adrian SD 61         2 2                   0    19
## # ... with 1,938 more rows
…
